{
  "firestore": {
    "rules": "firestore.rules",
    "indexes": "firestore.indexes.json"
  },
  "hosting": {
    "public": "public",
    "ignore": [
      "firebase.json",
      "**/.*",
      "**/node_modules/**"
    ],
    "headers": [
      { "source":"/service-worker.js", "headers": [{"key": "Cache-Control", "value": "no-cache"}] }
    ],
    "rewrites": [ {
      "source": "**",
      "destination": "/index.html"
    } ]
  }
}
